                     ___________
                    /==========\\
     _              |=||======\=\\
    | |_____________|=||=     =\=\\_________
..0 | =============|==||========|===========}>
o0   L=====___=====|==||________|===___=====|
.0   L====/___\====|===============/___\====|
o0o _||  //   \\                  //   \\===/
0.. __|   | X |                    | X |
          \___/                    \___/